Introduction to Time Series in R
…
The word tsibble denotes a tibble structure (tidy data, data.frame, etc.), with the time series aspect added.

Tsibbles behave much like tibbles, with a few exceptions that will be demonstrated.

Forecasting: Importing Data into R

here::here() 

## [1] "C:/Users/laura.rose/Documents"

rladies.demand.history <- read_excel("rladies.demand.history.xlsx")
rladies.demand.history$RSFMTH <- yearmonth(rladies.demand.history$RSFMTH) 
rladies.demand.history

## # A tibble: 248 x 7
##    RSSBU RSFAM RSSFAM      RSLITM RSDGRP           RSFMTH RSFQTY
##    <chr> <chr> <chr>       <chr>  <chr>             <mth>  <dbl>
##  1 GEN   MPD   GEN_MPD_MPM 06     GEN_ALL_GEN_US 2018 Jun     96
##  2 GEN   MPD   GEN_MPD_MPM 06     GEN_ALL_GEN_US 2018 Jul     72
##  3 GEN   MPD   GEN_MPD_MPM 06     GEN_ALL_GEN_US 2018 Aug     84
##  4 GEN   MPD   GEN_MPD_MPM 06     GEN_ALL_GEN_US 2018 Sep     72
##  5 GEN   MPD   GEN_MPD_MPM 06     GEN_ALL_GEN_US 2018 Nov    132
##  6 GEN   MPD   GEN_MPD_MPM 06     GEN_ALL_GEN_US 2018 Dec     96
##  7 GEN   MPD   GEN_MPD_MPM 06     GEN_ALL_GEN_US 2019 Jan     60
##  8 GEN   MPD   GEN_MPD_MPM 06     GEN_ALL_GEN_US 2019 Feb     84
##  9 GEN   MPD   GEN_MPD_MPM 06     GEN_ALL_GEN_US 2019 Jun     24
## 10 GEN   MPD   GEN_MPD_MPM 06     GEN_ALL_GEN_US 2019 Aug     48
## # ... with 238 more rows
…
To create a tsibble from a data frame, we must specify index and key (if necessary).

In our tsibble, the RSFMTH column is the index (time variable), and the other columns except RSFQTY are the keys.

The keys indicate how many models/forecasts need to be estimated/calculated. For example, if we had a tsibble with 2 keys, one of which had 3 unique items, and each of those 3 items in the first key had 3 items in the second key, we would have 9 models.

In our case, we have 4 SKUs, 3 of which have one customer demand group, and 1 of which has 5 customer demand groups, so we will have 8 models if we forecast at the lowest level.

Forecasting: Converting to Tsibble

rladies.demand.tsibble <- as_tsibble(rladies.demand.history, 
key = c(RSSBU, RSFAM, RSSFAM, RSLITM, RSDGRP), index = RSFMTH)
rladies.demand.tsibble

## # A tsibble: 248 x 7 [1M]
## # Key:       RSSBU, RSFAM, RSSFAM, RSLITM, RSDGRP [8]
##    RSSBU RSFAM RSSFAM      RSLITM RSDGRP               RSFMTH RSFQTY
##    <chr> <chr> <chr>       <chr>  <chr>                 <mth>  <dbl>
##  1 API   APP   API_APP_APM 25     API_ALL_API_GLOBAL 2018 Jan   5000
##  2 API   APP   API_APP_APM 25     API_ALL_API_GLOBAL 2018 Feb  10000
##  3 API   APP   API_APP_APM 25     API_ALL_API_GLOBAL 2018 Mar   5000
##  4 API   APP   API_APP_APM 25     API_ALL_API_GLOBAL 2018 May   5000
##  5 API   APP   API_APP_APM 25     API_ALL_API_GLOBAL 2018 Jun   5000
##  6 API   APP   API_APP_APM 25     API_ALL_API_GLOBAL 2018 Jul  10000
##  7 API   APP   API_APP_APM 25     API_ALL_API_GLOBAL 2018 Aug   5000
##  8 API   APP   API_APP_APM 25     API_ALL_API_GLOBAL 2018 Sep   5000
##  9 API   APP   API_APP_APM 25     API_ALL_API_GLOBAL 2018 Oct   5000
## 10 API   APP   API_APP_APM 25     API_ALL_API_GLOBAL 2018 Nov  15000
## # ... with 238 more rows

Forecasting: Cleaning up the Tsibble

The data contains data over a longer time span than we want to use for this analysis, so we will use the filter_index() function.

This allows us to filter the index based on a start date and/or an end date.

Note that as of early 2021, the start and end dates must be passed as character strings.

Forecasting: filter_index()

rladies.demand.tsibble <- rladies.demand.tsibble %>% filter_index("2018 Jan" ~ "2021 Jan")
rladies.demand.tsibble

## # A tsibble: 227 x 7 [1M]
## # Key:       RSSBU, RSFAM, RSSFAM, RSLITM, RSDGRP [8]
##    RSSBU RSFAM RSSFAM      RSLITM RSDGRP               RSFMTH RSFQTY
##    <chr> <chr> <chr>       <chr>  <chr>                 <mth>  <dbl>
##  1 API   APP   API_APP_APM 25     API_ALL_API_GLOBAL 2018 Jan   5000
##  2 API   APP   API_APP_APM 25     API_ALL_API_GLOBAL 2018 Feb  10000
##  3 API   APP   API_APP_APM 25     API_ALL_API_GLOBAL 2018 Mar   5000
##  4 API   APP   API_APP_APM 25     API_ALL_API_GLOBAL 2018 May   5000
##  5 API   APP   API_APP_APM 25     API_ALL_API_GLOBAL 2018 Jun   5000
##  6 API   APP   API_APP_APM 25     API_ALL_API_GLOBAL 2018 Jul  10000
##  7 API   APP   API_APP_APM 25     API_ALL_API_GLOBAL 2018 Aug   5000
##  8 API   APP   API_APP_APM 25     API_ALL_API_GLOBAL 2018 Sep   5000
##  9 API   APP   API_APP_APM 25     API_ALL_API_GLOBAL 2018 Oct   5000
## 10 API   APP   API_APP_APM 25     API_ALL_API_GLOBAL 2018 Nov  15000
## # ... with 217 more rows

Forecasting: Other ways to use filter_index()

# just get 2020 data; this doesn't work for yearmonth type so must convert to Date
rladies.demand.tsibble %>% mutate(RSFMTH = as.Date(RSFMTH)) %>% filter_index("2020")

## # A tsibble: 74 x 7 [1D]
## # Key:       RSSBU, RSFAM, RSSFAM, RSLITM, RSDGRP [7]
##    RSSBU RSFAM RSSFAM      RSLITM RSDGRP             RSFMTH     RSFQTY
##    <chr> <chr> <chr>       <chr>  <chr>              <date>      <dbl>
##  1 API   APP   API_APP_APM 25     API_ALL_API_GLOBAL 2020-01-01  10000
##  2 API   APP   API_APP_APM 25     API_ALL_API_GLOBAL 2020-02-01   5000
##  3 API   APP   API_APP_APM 25     API_ALL_API_GLOBAL 2020-03-01   5000
##  4 API   APP   API_APP_APM 25     API_ALL_API_GLOBAL 2020-04-01  10000
##  5 API   APP   API_APP_APM 25     API_ALL_API_GLOBAL 2020-05-01  10000
##  6 API   APP   API_APP_APM 25     API_ALL_API_GLOBAL 2020-06-01   5000
##  7 API   APP   API_APP_APM 25     API_ALL_API_GLOBAL 2020-08-01  20000
##  8 API   APP   API_APP_APM 25     API_ALL_API_GLOBAL 2020-09-01  10000
##  9 API   APP   API_APP_APM 25     API_ALL_API_GLOBAL 2020-11-01  10000
## 10 API   APP   API_APP_APM 37     API_ALL_API_GLOBAL 2020-01-01  89050
## # ... with 64 more rows

A note about the tidyverse verbs and tsibbles

Most of the tidyverse verbs (select, mutate, filter) work on tsibbles as expected.

The exception is the group_by and summarize verbs.

When applying these verbs, the index will remain.

See code in R Markdown document.

rladies.demand.tsibble %>% filter(RSLITM == '06') %>% group_by(RSLITM) %>% 
  summarize(RSFQTY = sum(RSFQTY))

## # A tsibble: 36 x 3 [1M]
## # Key:       RSLITM [1]
##    RSLITM   RSFMTH RSFQTY
##    <chr>     <mth>  <dbl>
##  1 06     2018 Jan   3264
##  2 06     2018 Feb   3168
##  3 06     2018 Mar    876
##  4 06     2018 Apr   2244
##  5 06     2018 May   2196
##  6 06     2018 Jun   1632
##  7 06     2018 Jul   1668
##  8 06     2018 Aug   2232
##  9 06     2018 Sep   2700
## 10 06     2018 Oct   3264
## # ... with 26 more rows
…
Forecasting: Residuals

Residuals are what remains after fitting a model.

In mathematical terms, \(e_{t} = y_{t}-\hat{y}_{t}\).

The goal in time series modeling is to have the residuals not contain any info that is not specified in the model.

In other words, the residuals are a white noise series.

To obtain the fitted values and residuals from a model object, use the augment() function.

rladies.demand.tsibble %>% filter(RSLITM == '89') %>% model(NAIVE(RSFQTY)) %>% augment()

## # A tsibble: 37 x 10 [1M]
## # Key:       RSSBU, RSFAM, RSSFAM, RSLITM, RSDGRP, .model [1]
##    RSSBU RSFAM RSSFAM   RSLITM RSDGRP    .model    RSFMTH RSFQTY .fitted  .resid
##    <chr> <chr> <chr>    <chr>  <chr>     <chr>      <mth>  <dbl>   <dbl>   <dbl>
##  1 API   APP   API_APP~ 89     API_ALL_~ NAIVE(~ 2018 Jan 271200      NA      NA
##  2 API   APP   API_APP~ 89     API_ALL_~ NAIVE(~ 2018 Feb 163200  271200 -108000
##  3 API   APP   API_APP~ 89     API_ALL_~ NAIVE(~ 2018 Mar 288600  163200  125400
##  4 API   APP   API_APP~ 89     API_ALL_~ NAIVE(~ 2018 Apr 115200  288600 -173400
##  5 API   APP   API_APP~ 89     API_ALL_~ NAIVE(~ 2018 May 213000  115200   97800
##  6 API   APP   API_APP~ 89     API_ALL_~ NAIVE(~ 2018 Jun 241800  213000   28800
##  7 API   APP   API_APP~ 89     API_ALL_~ NAIVE(~ 2018 Jul 115200  241800 -126600
##  8 API   APP   API_APP~ 89     API_ALL_~ NAIVE(~ 2018 Aug 181800  115200   66600
##  9 API   APP   API_APP~ 89     API_ALL_~ NAIVE(~ 2018 Sep 273000  181800   91200
## 10 API   APP   API_APP~ 89     API_ALL_~ NAIVE(~ 2018 Oct 229800  273000  -43200
## # ... with 27 more rows
…
Forecasting: Training and Test Data

The simplest way to test your model is to withhold the last 20% of observations from your data set as a test data set.

Note that these will not be used to estimate parameters.

In our data, the last observation is January 2021, and we have 37 observations.

We will withhold July 2020-January 2021.

train.data <- rladies.demand.tsibble %>% filter_index(. ~ "2020 Jun")
train.data

## # A tsibble: 240 x 7 [1M]
## # Key:       RSSBU, RSFAM, RSSFAM, RSLITM, RSDGRP [8]
##    RSSBU RSFAM RSSFAM      RSLITM RSDGRP               RSFMTH RSFQTY
##    <chr> <chr> <chr>       <chr>  <chr>                 <mth>  <dbl>
##  1 API   APP   API_APP_APM 25     API_ALL_API_GLOBAL 2018 Jan   5000
##  2 API   APP   API_APP_APM 25     API_ALL_API_GLOBAL 2018 Feb  10000
##  3 API   APP   API_APP_APM 25     API_ALL_API_GLOBAL 2018 Mar   5000
##  4 API   APP   API_APP_APM 25     API_ALL_API_GLOBAL 2018 Apr      0
##  5 API   APP   API_APP_APM 25     API_ALL_API_GLOBAL 2018 May   5000
##  6 API   APP   API_APP_APM 25     API_ALL_API_GLOBAL 2018 Jun   5000
##  7 API   APP   API_APP_APM 25     API_ALL_API_GLOBAL 2018 Jul  10000
##  8 API   APP   API_APP_APM 25     API_ALL_API_GLOBAL 2018 Aug   5000
##  9 API   APP   API_APP_APM 25     API_ALL_API_GLOBAL 2018 Sep   5000
## 10 API   APP   API_APP_APM 25     API_ALL_API_GLOBAL 2018 Oct   5000
## # ... with 230 more rows
…
rladies.demand.model %>% forecast(h = "1 year")

## # A fable: 96 x 9 [1M]
## # Key:     RSSBU, RSFAM, RSSFAM, RSLITM, RSDGRP, .model [8]
##    RSSBU RSFAM RSSFAM   RSLITM RSDGRP     .model   RSFMTH           RSFQTY .mean
##    <chr> <chr> <chr>    <chr>  <chr>      <chr>     <mth>           <dist> <dbl>
##  1 API   APP   API_APP~ 25     API_ALL_A~ ets    2021 Feb N(6079, 2.3e+07) 6079.
##  2 API   APP   API_APP~ 25     API_ALL_A~ ets    2021 Mar N(6079, 2.3e+07) 6079.
##  3 API   APP   API_APP~ 25     API_ALL_A~ ets    2021 Apr N(6079, 2.3e+07) 6079.
##  4 API   APP   API_APP~ 25     API_ALL_A~ ets    2021 May N(6079, 2.3e+07) 6079.
##  5 API   APP   API_APP~ 25     API_ALL_A~ ets    2021 Jun N(6079, 2.3e+07) 6079.
##  6 API   APP   API_APP~ 25     API_ALL_A~ ets    2021 Jul N(6079, 2.3e+07) 6079.
##  7 API   APP   API_APP~ 25     API_ALL_A~ ets    2021 Aug N(6079, 2.3e+07) 6079.
##  8 API   APP   API_APP~ 25     API_ALL_A~ ets    2021 Sep N(6079, 2.3e+07) 6079.
##  9 API   APP   API_APP~ 25     API_ALL_A~ ets    2021 Oct N(6079, 2.3e+07) 6079.
## 10 API   APP   API_APP~ 25     API_ALL_A~ ets    2021 Nov N(6079, 2.3e+07) 6079.
## # ... with 86 more rows
…
